{"content":[{"id":"2490f4a4-161a-4f44-8875-edbb9eaba32c","organizationId":"72991c8f-7821-40a3-bcfe-1672f9a5c2ed","version":2,"roles":{"vendor":{"number":70004}},"company":{"name":"1&1 Telecom Gmbh","vatRegistrationId":"DE273413910","allowTaxFreeInvoices":false},"addresses":{"billing":[{"street":"Elgendorfer Str. 57","zip":"56410","city":"Montabaur","countryCode":"DE"}]},"archived":false},{"id":"31973b97-ff23-4dd4-8961-e9df64336f02","organizationId":"72991c8f-7821-40a3-bcfe-1672f9a5c2ed","version":3,"roles":{"vendor":{"number":70013}},"company":{"name":"Airbnb","vatRegistrationId":"IE9827384L","allowTaxFreeInvoices":false},"phoneNumbers":{"business":["+4915202991268"]},"archived":false},{"id":"8b593e17-8e06-4e63-ab6a-127086c46d93","organizationId":"72991c8f-7821-40a3-bcfe-1672f9a5c2ed","version":1,"roles":{"vendor":{"number":70027}},"company":{"name":"ALTERNATE GmbH","vatRegistrationId":"DE112595008","allowTaxFreeInvoices":false},"addresses":{"billing":[{"street":"Philipp-Reis-Str. 2-3","zip":"35440","city":"Linden","countryCode":"DE"}]},"emailAddresses":{"business":["mail@alternate.de"]},"phoneNumbers":{"business":["+49(0)6403/905040"]},"archived":false},{"id":"98f71359-eeeb-463c-8c71-d7cf3b9c5638","organizationId":"72991c8f-7821-40a3-bcfe-1672f9a5c2ed","version":2,"roles":{"vendor":{"number":70006}},"company":{"name":"Amazon EU S.à r.l., Niederlassung Deutschland","vatRegistrationId":"DE814584193","allowTaxFreeInvoices":false},"archived":false},{"id":"99bf36e4-9fd0-4b6c-8b47-6713b8ac433d","organizationId":"72991c8f-7821-40a3-bcfe-1672f9a5c2ed","version":2,"roles":{"vendor":{"number":70008}},"company":{"name":"ARD ZDF Beitragsservice","allowTaxFreeInvoices":true},"archived":false},{"id":"47535cf7-cc55-4aa2-b213-009541714404","organizationId":"72991c8f-7821-40a3-bcfe-1672f9a5c2ed","version":0,"roles":{"vendor":{"number":70037}},"company":{"name":"B&B HOTELS GmbH","allowTaxFreeInvoices":false},"archived":false},{"id":"e422bf02-db0a-445c-b720-3d5b2ffe62fd","organizationId":"72991c8f-7821-40a3-bcfe-1672f9a5c2ed","version":1,"roles":{"vendor":{"number":70036}},"company":{"name":"Braumanufaktur Steckenpferd UG","allowTaxFreeInvoices":false},"addresses":{"billing":[{"street":"Rainer-Dierichs-Platz","zip":"34117","city":"Kassel","countryCode":"DE"}]},"archived":false},{"id":"7d996a5b-06d1-4780-9b45-0a14fb73fcc4","organizationId":"72991c8f-7821-40a3-bcfe-1672f9a5c2ed","version":1,"roles":{"vendor":{"number":70040}},"company":{"name":"Braumanufaktur Steckenpferd UG (haftungsbeschränkt)","allowTaxFreeInvoices":false},"addresses":{"billing":[{"street":"Kastenalsgasse","zip":"34117","city":"Kassel","countryCode":"DE"}]},"emailAddresses":{"business":["info@braumanufaktur-steckenpferd.de"]},"archived":false},{"id":"ce775a17-a66c-4997-a1dc-569101ddc7f0","organizationId":"72991c8f-7821-40a3-bcfe-1672f9a5c2ed","version":3,"roles":{"vendor":{"number":70017}},"company":{"name":"Chaos Computer","vatRegistrationId":"DE203286729","allowTaxFreeInvoices":false},"addresses":{"billing":[{"street":"Marienstr. 11","zip":"10117","city":"Berlin","countryCode":"DE"}]},"archived":false},{"id":"07719de1-2efd-4319-89b8-cb338e3ef496","organizationId":"72991c8f-7821-40a3-bcfe-1672f9a5c2ed","version":0,"roles":{"vendor":{"number":70029}},"company":{"name":"CORBIN VINCENT ALEXANDRE RAYMOND","vatRegistrationId":"DE306853339","allowTaxFreeInvoices":false},"archived":false},{"id":"ec0f1e40-1d14-47c3-8c29-9c9097887697","organizationId":"72991c8f-7821-40a3-bcfe-1672f9a5c2ed","version":1,"roles":{"customer":{"number":10011}},"company":{"name":"CSTx Enterprise Solutions GmbH","contactPersons":[{"salutation":"Herr","firstName":"Marcel","lastName":"Hartwig","emailAddress":"marcel.hartwig@cstx.de"}]},"addresses":{"billing":[{"street":"Salzdahlumer Straße 196","zip":"38126","city":"Braunschweig","countryCode":"DE"}]},"archived":false},{"id":"e533a479-e813-472e-a054-3bef7dfa5115","organizationId":"72991c8f-7821-40a3-bcfe-1672f9a5c2ed","version":2,"roles":{"customer":{"number":10003}},"company":{"name":"CSTx Software Engineering GmbH ","vatRegistrationId":"DE245659579","allowTaxFreeInvoices":false,"contactPersons":[{"salutation":"Herr","firstName":"Michael ","lastName":"Rother","emailAddress":"Michael.Rother@cstx.de","phoneNumber":"+49 531 - 877 00 68 - 0"}]},"addresses":{"billing":[{"street":"Salzdahlumer Straße 196","zip":"38126","city":"Braunschweig","countryCode":"DE"}]},"archived":false},{"id":"7f567eae-fe5f-43d6-af95-19f515cb472a","organizationId":"72991c8f-7821-40a3-bcfe-1672f9a5c2ed","version":2,"roles":{"vendor":{"number":70007}},"company":{"name":"Deutsche Bahn","allowTaxFreeInvoices":false},"archived":false},{"id":"14fd3171-e3f0-43fd-9cb4-109715ee00b8","organizationId":"72991c8f-7821-40a3-bcfe-1672f9a5c2ed","version":2,"roles":{"vendor":{"number":70009}},"company":{"name":"Deutsche Post E-POST Solutions GmbH","vatRegistrationId":"DE252502768","allowTaxFreeInvoices":false},"archived":false},{"id":"07237f60-4a2a-41f2-80ba-abccdafa925d","organizationId":"72991c8f-7821-40a3-bcfe-1672f9a5c2ed","version":0,"roles":{"vendor":{"number":70034}},"company":{"name":"Digital River Ireland, Ltd","vatRegistrationId":"IE6426071C","allowTaxFreeInvoices":false},"archived":false},{"id":"99cdbb70-19d6-45fd-8b48-47bbe40acaa8","organizationId":"72991c8f-7821-40a3-bcfe-1672f9a5c2ed","version":0,"roles":{"vendor":{"number":70035}},"company":{"name":"exali GmbH - Das Versicherungsportal für Dienstleister und freie Berufe","allowTaxFreeInvoices":false},"archived":false},{"id":"c31cb76d-1fab-4a05-b8db-f98be510c0f9","organizationId":"72991c8f-7821-40a3-bcfe-1672f9a5c2ed","version":4,"roles":{"customer":{"number":10014},"vendor":{"number":70020}},"company":{"name":"Finanzamt Kassel","allowTaxFreeInvoices":true},"archived":false},{"id":"373f12da-0011-4fd7-a449-bcd632ebf341","organizationId":"72991c8f-7821-40a3-bcfe-1672f9a5c2ed","version":2,"roles":{"customer":{"number":10002}},"company":{"name":"fino digital GmbH","vatRegistrationId":"DE299939922","allowTaxFreeInvoices":false,"contactPersons":[{"salutation":"Herr","firstName":"Florian","lastName":"Christ","emailAddress":"florian.christ@fino.digital"}]},"addresses":{"billing":[{"supplement":"c/o Science Park Kassel ","street":"Universitätsplatz 12 ","zip":"34127","city":"Kassel","countryCode":"DE"}]},"emailAddresses":{"business":["fino@fino.digital"]},"archived":false},{"id":"33f56c3f-b7d6-48f4-89b6-5431421a4cf5","organizationId":"72991c8f-7821-40a3-bcfe-1672f9a5c2ed","version":1,"roles":{"vendor":{"number":70031}},"company":{"name":"Flinkster","vatRegistrationId":"DE813214880","allowTaxFreeInvoices":false},"addresses":{"billing":[{"street":"Scharrenstr. 10","zip":"06108","city":"Halle","countryCode":"DE"}]},"emailAddresses":{"business":["info@flinkster.de"]},"phoneNumbers":{"business":["06942727700"]},"archived":false},{"id":"639a64cc-05b0-4681-a528-3665d97e83ff","organizationId":"72991c8f-7821-40a3-bcfe-1672f9a5c2ed","version":2,"roles":{"vendor":{"number":70011}},"company":{"name":"Flyeralarm","allowTaxFreeInvoices":false},"archived":false},{"id":"02212ebb-3521-4938-8645-49f742a44ffd","organizationId":"72991c8f-7821-40a3-bcfe-1672f9a5c2ed","version":3,"roles":{"vendor":{"number":70018}},"company":{"name":"GANDI International","vatRegistrationId":"LU26141926","allowTaxFreeInvoices":false},"addresses":{"billing":[{"countryCode":"DE"}]},"emailAddresses":{"business":["facture@gandi.net"]},"archived":false},{"id":"443ec6bd-7f78-40f9-8257-ff7b4942607d","organizationId":"72991c8f-7821-40a3-bcfe-1672f9a5c2ed","version":3,"roles":{"customer":{"number":10007}},"company":{"name":"Gulp","taxNumber":"259813457","allowTaxFreeInvoices":false},"addresses":{"billing":[{"street":"Landsberger Straße 187","zip":"80687","city":"München","countryCode":"DE"}]},"archived":false},{"id":"a8eab9f5-c05a-4e42-816a-19ccea3bf6e2","organizationId":"72991c8f-7821-40a3-bcfe-1672f9a5c2ed","version":2,"roles":{"vendor":{"number":70002}},"company":{"name":"Haufe Service Center GmbH"},"addresses":{"billing":[{"street":"Postfach","zip":"79091","city":"Freiburg","countryCode":"DE"}]},"emailAddresses":{"business":["lexoffice@haufe-lexware.net"]},"archived":false},{"id":"e0d69b20-df06-4c2e-a373-69db5ac87e2a","organizationId":"72991c8f-7821-40a3-bcfe-1672f9a5c2ed","version":3,"roles":{"customer":{"number":10009}},"company":{"name":"Hays Holding GmbH","vatRegistrationId":"DE300794199","allowTaxFreeInvoices":false},"addresses":{"billing":[{"street":"Postfach 100154","zip":"68001","city":"Mannheim","countryCode":"DE"}]},"archived":false},{"id":"115f4823-a169-4a40-8187-fac8777b2cab","organizationId":"72991c8f-7821-40a3-bcfe-1672f9a5c2ed","version":4,"roles":{"customer":{"number":10012}},"company":{"name":"Hays Technology Solutions GmbH","vatRegistrationId":"DE298064584","allowTaxFreeInvoices":false,"contactPersons":[{"salutation":"Herr","firstName":"Philipp","lastName":"Burkart","emailAddress":"philipp.burkart@hays.de","phoneNumber":"+ 49 621 1788 1868 "}]},"addresses":{"billing":[{"street":"Brandstwiete 1","zip":"20457","city":"Hamburg","countryCode":"DE"}]},"phoneNumbers":{"fax":["+ 49 621 1788 1499"]},"archived":false}],"first":true,"last":false,"totalPages":3,"totalElements":52,"numberOfElements":25,"size":25,"number":0,"sort":[{"property":"name","direction":"ASC","ignoreCase":false,"nullHandling":"NATIVE","ascending":true}]}